﻿{
  "configurations": [
    {
      "name": "x64-Debug-Static",
      "generator": "Ninja",
      "configurationType": "Debug",
      "inheritEnvironments": [ "msvc_x64_x64" ],
      "buildRoot": "${projectDir}\\out\\build\\${name}",
      "installRoot": "${projectDir}\\out\\install\\${name}",
      "cmakeCommandArgs": "",
      "buildCommandArgs": "",
      "ctestCommandArgs": "",
      "variables": [
        {
          "name": "CMAKE_TOOLCHAIN_FILE",
          "value": "C:/Users/vadim/source/repos/vcpkg/scripts/buildsystems/vcpkg.cmake"
        },
        {
          "name": "VCPKG_TARGET_TRIPLET",
          "value": "x64-windows-static"
        },
        {
          "name": "VCPKG_VERBOSE",
          "value": "ON"
        }
      ]
    },
    {
      "name": "x64-Release-Static",
      "generator": "Ninja",
      "configurationType": "Release",
      "buildRoot": "${projectDir}\\out\\build\\${name}",
      "installRoot": "${projectDir}\\out\\install\\${name}",
      "cmakeCommandArgs": "",
      "buildCommandArgs": "",
      "ctestCommandArgs": "",
      "inheritEnvironments": [ "msvc_x64_x64" ],
      "variables": [
        {
          "name": "CMAKE_TOOLCHAIN_FILE",
          "value": "C:/Users/vadim/source/repos/vcpkg/scripts/buildsystems/vcpkg.cmake"
        },
        {
          "name": "VCPKG_TARGET_TRIPLET",
          "value": "x64-windows-static"
        },
        {
          "name": "VCPKG_VERBOSE",
          "value": "ON"
        }
      ]
    }
  ]
}